{
    "en":{
        "All_Categories"							: "All Categories",
        "Type_Here" 							: "Type here...",
        "Sell_Your_Products" 							: "Sell Your Products",
        "Help_Center"   : "Help Center",
        "Email_Us"   : "Email Us",
        "Or"   : "Or",
        "Languages"   : "Languages",
        "Currency"   : "Currency",
        "Sell_On_MOT"   : "Sell On MOT",
        "View_All" : "View  All",
        "Turkish_Products" : "TURKISH PRODUCTS",
        "Find_Products" : "FIND PRODUCTS",
        "Secure_Payment" : "SECURE PAYMENT",
        "Protection_System" : "PROTECTION SYSTEM",
        "Easy_Return" : "EASY RETURN",
        "Reliable_Return" : "RELIABLE TO RETURN",
        "24X7_Supports" : "24X7 SUPPORTS",
        "Ready_To_Help_you" : "READY TO HELP YOU",
        "Flash_Deals" : "Flash Deals",
        "Daily_Deals" : "Daily Deals",
        "New_Arrivals" : "New Arrivals",
        "Inspection_Goods" : "Inspection Goods",
        "Just_For_You" : "Just For You",
        "Made_In_Turkey" : "Made in Turkey",
        "Sell_Product" : "Sell Your Product",
        "Affordable_Price"  :  " at Affordable price",
        "Shop_Now" : "Shop_Now",
        "Sell_Now" : "Sell Now",
        "Ends_In" : "Ends In",
        "per_Off" : "% Off",
        "All"  :  "All",
        "Today_Deals"  : "TODAY'S DEALS",
        "Trending_Products"  :  "Trending Products",
        "Sub_New_Text"  :  "TRADE ALERT - DELIVERING THE LATEST PRODUCT TRENDS AND INDUSTRY NEWS STRAIGHT TO YOUR INBOX.",
        "Enter_Your_Email"  :  "Enter Your Email",
        "Subscribe_Now"  :  "اشترك الآن",
        "Back_To_Top"  :  "BACK TO TOP",
        "Customer_Services"  :  "Customer Services",
        "Mot_B2C"  :  "MOT B2C",
        "Mot_B2B"  :  "MOT B2B",
        "Trade_Services"  :  "Trade Services",
        "Top_Brands"  :  "TOP BRANDS",
        "All_Rights"  :  "07/02/2020 All rights reserved.",
        "Designed_By"  :  "Designed by : Square House",
        "Your_Cart"  :  "Your Cart",
        "Home"  :  "Home",
        "Library"  :  "Library",
        "Data"  :  "Data",
        "Checkout"  :  "Checkout",
        "Shipping_Info"  :  "SHIPPING INFORMATION",
        "Payment"  :  "PAYMENT",
        "Coupans"  :  "COUPANS",
        "Apply_Coupans"  :  "Apply Coupans",
        "Apply"  :  "Apply",
        "Price_Details"  :  "PRICE DETAILS",
        "Total"  :  "Total",
        "Name"  :  "Name",
        "Digit_Mobile_Number"  :  "10-digit mobile number",
        "Pincode"  :  "Pincode",
        "Locality"  :  "Locality",
        "Address_Area_Street"  :  "Address (Area and Street)",
        "City_District_Town"  :  "City/District/Town",
        "State"  :  "State",
        "Landmark"  :  "Landmark",
        "Alternate"  :  "Alternate",
        "Home_Delivery"  :  "Home (All day delivery)",
        "Work_Delivery"  :  "Work (Delivery between 10 AM -5 PM)",
        "Save_And_Delivery"  :  "SAVE AND DELIVERY HERE",
        "If_Already_User"  :  "If Already user please ",
        "Login"  :  "Login",
        "Signup"  :  "Signup",
        "Next_Step"  :  "NEXT STEP",
        "Image"  :  "Image",
        "Product"  :  "Product",
        "Price"  :  "Price",
        "Quantity"  :  "Quantity",
        "Remove"  :  "Remove",
        "Select_Payment_Method"  :  "Select a payment method",
        "Add_DCA_Card"  :  "Add Debit/Credit/ATM Card",
        "Card"  :  "Card",
        "Expiry_Date"  :  "Expiry Date",
        "Net_Banking"  :  "Net Banking",
        "Choose_Option"  :  "Choose an option",
        "Knet"  :  "KNET",
        "Pay_Now"  :  "PAY NOW",
        "Order_Review_Note_Login"  :  "You can review this order before it's final. Login now",
        "Edit_Account"  :  "Edit_Account",
        "Change_Password"  :  "Change_Password",
        "Address_Book"  :  "Address_Book",
        "Add_Address"  :  "Add_Address",
        "Wish_List"  :  "Wish_List",
        "My_Cancelation"  :  "My Cancelation",
        "Number"  :  "Number",
        "Date_Of_Birth"  :  "Date of Birth",
        "Update_Information"  :  "UPDATE INFORMATION",
        "Email"  :  "Email",
        "Email_Address"  :  "Email Address",
        "Phone"  :  "Phone",
        "Product_Image"  :  "PRODUCT IMAGE",
        "Search_Compare"  :  "Search compare with...",
        "Search"  :  "Search",
        "Product_Name"  :  "Product_Name",
        "Rating"  :  "RATING",
        "Add_To_Cart"  :  "Add To Cart",
        "In_Stock"  :  "In Stock",
        "Address"  :  "Address",
        "Description"  :  "Description",
        "Color"  :  "Color",
        "Sizes_Available"  :  "SIZES AVAILABLE",
        "Item_Availability"  :  "ITEM AVAILABILITY",
        "Weight"  :  "WEIGHT",
        "Dimensions"  :  "Dimensions",
        "NA"  :  "N/A",
        "Got_Questions"  :  "GOT QUESTIONS?",
        "Contact_Note"  :  "The easiest thing to do is post on our ",
        "Forums"  :  "Forums",
        "Forgot_Password"  :  "Forgot Password",
        "Email_or_mobile"  :  "Email or mobile phone number",
        "Continue"  :  "Continue",
        "Enter_Otp"  :  "Enter OTP",
        "Resend"  :  "RESEND",
        "Athentication_Required"  :  "Athentication required",
        "Authentication"  :  "Authentication",
        "New_Password"  :  "New Password",
        "Reset_Password"  :  "Reset Password",
        "Enter_New_Password"  :  "Enter New Password",
        "Re_Enter_New_Password"  :  "Re-Enter New Password",
        "Email_Password"  :  "Email Password",
        "Agree_To_Mot"  :  "You agree to MOT",
        "Register"  :  "Register",
        "User_Name"  :  "User Name",
        "Password"  :  "Password",
        "Re_Enter_Password"  :  "Re-Enter Password",
        "Order_Detail"  :  "Order Detail",
        "Order"  :  "Order",
        "Placed_On"  :  "Placed on ",
        "Package"  :  "Package",
        "Sold_By"  :  "Sold by",
        "Delivered_On"  :  "Delivered on",
        "Qty"  :  "Qty ",
        "Standard"  :  "Standard",
        "Chat_Now"  :  "Chat Now",
        "Order_Processing"  :  "Order Processing",
        "Shipped"  :  "Shipped",
        "Delivered"  :  "Delivered",
        "Write_Review"  :  "Write a Review",
        "Thank_You_Mot"  :  "Your package has been delivered. Thank you for shopping at MOT!",
        "Shipping_Address"  :  "SHIPPING ADDRESS",
        "Reviews"  :  "reviews",
        "View_Profile"  :  "VIEW PROFILE",
        "Votes"  :  "votes",
        "Vote_Percent"  :  "of buyers enjoyed this product! ",
        "Sizes" :   "sizes",
        "Colors" :   "colors",
        "Not_Store" :   "Not In store",
        "Member_Since"  :  "Member Since",
        "Other_Products"  :  "OTHER PRODUCTS",
        "Ask_To_Seller"  :  "Ask Question To Seller",
        "View_List"  :  "View List",
        "Compare"  :  "Compare",
        "Add_To_Wishlist"  :  "Add to wishlist",
        "Additional_Info"  :  "ADDITIONAL INFO",
        "Capacity"  :  "Capacity",
        "Water_Resistant"  :  "Water Resistant",
        "Material"  :  "Material",
        "Review_For"  :  "Review For",
        "Add_Your_Review"  :  "Add Your review",
        "Comments"  :  "Comments",
        "Your_Review"  :  " Your review",
        "Enter_Name"  :  "Enter Name",
        "Enter_Email"  :  "Enter Email",
        "Upload_Photo"  :  "Upload Photo",
        "Submit_Review"  :  "Submit Review",
        "Similar_Products"  :  "SIMILAR PRODUCTS",
        "Buy"  :  "Buy",
        "Filters"  :  "Filters",
        "Categories"  :  "Categories",
        "Brand"  :  "Brand",
        "Size"  :  "Size",
        "Terms"  :  "Our Terms & Conditions",
        "Terms_Where"  :  "Where does it come from?",
        "Terms_Why"  :  "Why do we use it?",
        "Stuff"  :  "STUFF",
        "Thank_You"  :  "Thanks for Shopping",
        "Order_Confirmed"  :  "your order has been confirmed",
        "Your_Order_Id"  :  "your order id is",
        "Go_Home"  :  "GO HOME",
        "Sort_By"  :  "Sort By",
        "New"  : "New",
        "Old"  : "Old",
        "Show_20"  : "Show : 20",
        "Show_30"  : "Show : 30",
        "Show_40"  : "Show : 40",
        "Contact_Us"  :  "Contact_Us",
        "Report_Abuse"  :  "Report Abuse",
        "Submit_Dispute"  :  "Submit a Dispute",
        "Policies_Rules"  :  "Policies & Rules",
        "Get_Paid_Feedback"  :  "Get Paid for Your Feedback",
        "Mot_Title"  :  "Mot - Online Shopping Store"
    }
}